﻿13.368842,52.535955,44,2,22
13.395824,52.534398,44,2,22
13.395841,52.529125,44,2,22
13.39135,52.530483,44,2,22
13.37762,52.531847,22,2,11
13.37762,52.531847,22,2,11
13.370317,52.5343,22,2,11
13.391272,52.528091,22,2,11
13.397123,52.534702,22,2,11
13.39438,52.530867,22,2,11
13.377542,52.529276,22,2,11
13.383475,52.527262,22,2,11
13.380581,52.523719,44,2,22
13.390248,52.51897,44,2,22
13.38025,52.51983,44,2,22
13.389922,52.515846,44,2,22
13.389543,52.509467,44,2,22
13.41046,52.51579,44,2,22
13.380966,52.522819,44,2,22
13.378846,52.528677,44,2,22
13.378211,52.510907,22,2,11
13.396763,52.511309,22,2,11
13.390118,52.512969,22,2,11
13.38431,52.515197,22,2,11
13.385222,52.519615,22,2,11
13.390051,52.513886,22,2,11
13.387711,52.518608,22,2,11
13.393597,52.512212,22,2,11
13.402657,52.508887,22,2,11
13.403225,52.510113,22,2,11
13.377542,52.529276,22,2,11
13.393978,52.509573,22,2,11
13.3802426,52.5160186,11,1,11
13.403185,52.53382,44,2,22
13.409136,52.518744,44,2,22
13.421389,52.524167,44,2,22
13.403944,52.520978,22,2,11
13.413833,52.522747,93,2,46.5
13.41251,52.524215,22,2,11
13.416022,52.521882,22,2,11
13.403986,52.51991,22,2,11
13.403986,52.51991,22,2,11
13.403986,52.51991,22,2,11
13.403986,52.51991,22,2,11
13.403986,52.51991,22,2,11
13.4077372,52.5220352,93,2,46.5
13.409065,52.510383,44,2,22
13.415578,52.513388,22,2,11
13.414446,52.508218,22,2,11
13.42347,52.509718,22,2,11
13.422526,52.505724,22,2,11
13.42347,52.509718,22,2,11
13.426218,52.506232,22,2,11
13.4189,52.512341,22,2,11
13.4147948,52.5199026,11,4,2.75
13.4218996,52.513943,50,1,50
13.4218996,52.513943,50,1,50
13.450787,52.515183,22,2,11
13.449488,52.507889,22,2,11
13.437725,52.520102,22,2,11
13.432585,52.517177,22,2,11
13.434841,52.521066,22,2,11
13.448263,52.51305,22,2,11
13.466975,52.507268,22,2,11
13.465531,52.498498,3.7,1,3.7
13.46754,52.496249,22,2,11
13.458532,52.500352,3.7,1,3.7
13.468947,52.49595,22,2,11
13.474964,52.511975,22,2,11
13.463083,52.514612,22,2,11
13.465006,52.510496,22,2,11
13.468329,52.520596,50,2,25
13.468329,52.520596,75,3,25
13.466111,52.523056,44,2,22
13.448454,52.524128,22,2,11
13.428995,52.525626,22,2,11
13.451129,52.522418,22,2,11
13.440238,52.518612,22,2,11
13.454361,52.52183,22,2,11
13.513615,52.505603,44,2,22
13.51782,52.534426,22,2,11
13.506379,52.509074,44,2,22
13.481084,52.502977,44,2,22
13.4779,52.501809,22,2,11
13.496068,52.504825,22,2,11
13.473412,52.504947,22,2,11
13.526469,52.481183,44,2,22
13.52497,52.491855,22,2,11
13.519582,52.484759,22,2,11
13.527395,52.483038,22,2,11
13.502235,52.498223,22,2,11
13.52312,52.495354,50,3,16.66666667
13.4969744,52.4997043,93,2,46.5
13.4975,52.511667,44,2,22
13.477803,52.514874,110,4,27.5
13.49956,52.528485,39.6,2,19.8
13.499556,52.528479,39.6,2,19.8
13.479989,52.516139,44,2,22
13.480103,52.523041,22,2,11
13.468979,52.531126,44,2,22
13.414964,52.5337,22,2,11
13.425677,52.53194,22,2,11
13.431859,52.535618,22,2,11
13.412186,52.528486,22,2,11
13.420515,52.535955,22,2,11
13.422345,52.530953,22,2,11
13.416585,52.532219,22,2,11
13.442525,52.533827,22,2,11
13.461713,52.530883,3.7,1,3.7
13.44938,52.52725,93,2,46.5
13.449363,52.527273,43,2,21.5
13.449398,52.52723,43,2,21.5
13.436855,52.533806,22,2,11
13.432955,52.533674,22,2,11
13.445023,52.531075,22,2,11
13.434695,52.531795,22,2,11
13.431412,52.532236,22,2,11
13.458419,52.529386,300,2,150
13.44505,52.533789,75,2,37.5
13.446252,52.534841,44,2,22
13.456447,52.53407,93,2,46.5
13.438961,52.542085,22,2,11
13.438632,52.547015,22,2,11
13.441678,52.546174,22,2,11
13.434476,52.545886,22,2,11
13.405008,52.535712,44,2,22
13.403331,52.535344,22,2,11
13.406896,52.539697,22,2,11
13.406615,52.536428,93,2,46.5
13.417905,52.538372,22,2,11
13.419561,52.537648,22,2,11
13.417228,52.543283,22,2,11
13.415361,52.544174,22,2,11
13.412197,52.548538,22,2,11
13.422667,52.541606,22,2,11
13.405624,52.546845,22,2,11
13.4204862,52.5472183,43,2,21.5
13.4204862,52.5472183,43,2,21.5
13.411729,52.543267,22,2,11
13.424988,52.546751,22,2,11
13.429248,52.55057,22,2,11
13.413783,52.552103,22,2,11
13.408519,52.553752,22,2,11
13.4157815,52.5494582,11,2,5.5
13.24006,52.33155,50,3,16.66666667
13.341048,52.532441,22,2,11
13.32721,52.526111,22,2,11
13.323449,52.525441,22,2,11
13.332421,52.524128,22,2,11
13.334078,52.523604,22,2,11
13.370633,52.525956,44,2,22
13.362537,52.523223,44,2,22
13.345655,52.520314,44,2,22
13.366234,52.523427,22,2,11
13.349306,52.524127,22,2,11
13.363388,52.535564,88,4,22
13.363388,52.535564,88,4,22
13.363388,52.535564,88,4,22
13.363388,52.535564,88,4,22
13.363388,52.535564,88,4,22
13.363388,52.535564,88,4,22
13.363388,52.535564,22,1,22
13.347028,52.534455,22,2,11
13.3499602,52.5345661,22,2,11
13.353111,52.535641,44,2,22
13.344103,52.526846,22,3,7.333333333
13.309385,52.516632,44,2,22
13.309261,52.5121,44,2,22
13.309838,52.513972,22,2,11
13.313218,52.515006,22,2,11
13.322778,52.513661,44,2,22
13.300289,52.52122,22,2,11
13.304447,52.517207,22,2,11
13.327993,52.521042,22,2,11
13.326895,52.519349,93,2,46.5
13.32215,52.521775,22,2,11
13.330699,52.516117,44,2,22
13.330552,52.516056,11,2,5.5
13.330572,52.516106,11,2,5.5
13.329244,52.515854,22,2,11
13.329125,52.515888,22,2,11
13.330443,52.51606,11,2,5.5
13.330658,52.515923,11,2,5.5
13.330658,52.515923,11,2,5.5
13.330347,52.516014,11,2,5.5
13.330711,52.515987,11,2,5.5
13.330481,52.515999,11,2,5.5
13.329029,52.515888,22,2,11
13.328986,52.5158,22,2,11
13.329103,52.515568,22,2,11
13.329254,52.515514,22,2,11
13.329469,52.515652,22,2,11
13.330353,52.515366,22,2,11
13.329972,52.515274,22,2,11
13.33012,52.515221,22,2,11
13.330754,52.516026,22,2,11
13.33074,52.51601,22,2,11
13.330534,52.516098,11,2,5.5
13.330667,52.516018,22,2,11
13.314292,52.525918,22,1,22
13.301083,52.525864,22,2,11
13.306551,52.527042,44,2,22
13.30759,52.52867,150,3,50
13.322375,52.506539,44,2,22
13.322816,52.50553,44,2,22
13.329802,52.513015,44,2,22
13.327709,52.505217,44,2,22
13.330307,52.510533,22,2,11
13.322963,52.510594,22,2,11
13.317669,52.505876,22,2,11
13.309893,52.510341,22,2,11
13.31831,52.511092,22,2,11
13.306286,52.506822,44,2,22
13.299993,52.505012,44,2,22
13.414964,52.5337,22,2,11
13.296954,52.510481,22,2,11
13.305567,52.501687,22,2,11
13.30371,52.503442,22,2,11
13.313239,52.502757,22,2,11
13.296396,52.502078,22,2,11
13.309256,52.500502,22,2,11
13.3168,52.500883,44,2,22
13.315086,52.493249,44,2,22
13.308887,52.495371,22,2,11
13.31408,52.49067,22,2,11
13.313894,52.496709,22,2,11
13.315411,52.491912,28,2,14
13.315132,52.4918144,28,2,14
13.315132,52.4918144,28,2,14
13.301795,52.499225,22,2,11
13.296396,52.502078,22,2,11
13.305454,52.493295,22,2,11
13.30161,52.494299,22,2,11
13.301795,52.499225,22,2,11
13.287951,52.496901,22,2,11
13.287951,52.496901,22,2,11
13.318856,52.481323,22,2,11
13.302828,52.487809,22,2,11
13.318856,52.481323,22,2,11
13.329605,52.481311,22,2,11
13.323902,52.479959,22,2,11
13.323897,52.478824,3.7,1,3.7
13.330553,52.49095,44,2,22
13.330154,52.493241,22,2,11
13.324974,52.491206,22,2,11
13.326757,52.491327,22,2,11
13.329086,52.499416,44,2,22
13.323631,52.494521,22,2,11
13.324219,52.497883,22,2,11
13.319607,52.496013,22,2,11
13.32907,52.502907,22,2,11
13.32933,52.503511,22,2,11
13.344862,52.496774,44,2,22
13.342238,52.499237,22,2,11
13.349617,52.500134,22,2,11
13.336286,52.494967,22,2,11
13.360266,52.494506,22,2,11
13.349851,52.494823,22,2,11
13.349171,52.491716,22,2,11
13.359538,52.498649,22,2,11
13.373844,52.510428,44,2,22
13.353095,52.504097,44,2,22
13.376732,52.511446,11,1,11
13.376732,52.511446,11,1,11
13.376732,52.511446,11,1,11
13.366073,52.499244,22,2,11
13.352832,52.503742,22,2,11
13.370846,52.501842,22,2,11
13.375706,52.509995,22,2,11
13.371376,52.503763,22,2,11
13.349137,52.507832,44,2,22
13.343569,52.505073,44,2,22
13.345728,52.501532,22,2,11
13.346073,52.506636,22,2,11
13.335301,52.501585,44,2,22
13.343711,52.501225,44,2,22
13.336498,52.50064,22,2,11
13.349555,52.488368,22,2,11
13.340837,52.488661,44,2,22
13.354516,52.487371,22,2,11
13.343806,52.488831,22,2,11
13.346442,52.482535,22,2,11
13.337844,52.485822,22,2,11
13.342114,52.484108,3.7,1,3.7
13.361049,52.491234,22,2,11
13.359963,52.48853,22,2,11
13.35,52.482,50,2,25
13.3642,52.47574,93,2,46.5
13.361404,52.485471,22,2,11
13.359555,52.475252,22,2,11
13.355319,52.480154,88,4,22
13.356835,52.480792,11,1,11
13.356927,52.480834,11,1,11
13.357124,52.480931,11,1,11
13.357018,52.48098,11,1,11
13.356947,52.481024,11,1,11
13.356849,52.481086,11,1,11
13.356752,52.481118,11,1,11
13.356673,52.481132,11,1,11
13.356598,52.481134,11,1,11
13.356509,52.481126,11,1,11
13.356435,52.481102,11,1,11
13.35639,52.481066,11,1,11
13.356296,52.481022,11,1,11
13.356216,52.48093,11,1,11
13.356207,52.480858,11,1,11
13.356236,52.480785,11,1,11
13.356282,52.480739,11,1,11
13.356337,52.480703,11,1,11
13.356405,52.480662,11,1,11
13.356477,52.48064,11,1,11
13.356744,52.480977,11,1,11
13.356671,52.481,11,1,11
13.356584,52.481005,11,1,11
13.356493,52.480984,11,1,11
13.356424,52.480949,11,1,11
13.356424,52.480949,11,1,11
13.356389,52.480894,11,1,11
13.35642,52.480823,11,1,11
13.356645,52.480924,11,1,11
13.356552,52.480937,11,1,11
13.356515,52.480886,11,1,11
13.356609,52.48084,11,1,11
13.356698,52.480875,11,1,11
13.356768,52.480898,11,1,11
13.356854,52.480932,11,1,11
13.363947,52.478634,22,2,11
13.390709,52.491988,22,2,11
13.398243,52.4948,22,2,11
13.407274,52.488685,22,2,11
13.388703,52.497232,22,2,11
13.390284,52.489861,22,2,11
13.376504,52.508248,44,2,22
13.383722,52.495127,22,2,11
13.380887,52.504762,22,2,11
13.379659,52.493218,22,2,11
13.388511,52.501334,22,2,11
13.3753005,52.505925,22,1,22
13.3753005,52.505925,22,1,22
13.3753005,52.505925,22,1,22
13.3753005,52.505925,22,1,22
13.3753005,52.505925,22,1,22
13.3753005,52.505925,22,1,22
13.3753005,52.505925,22,1,22
13.3753005,52.505925,22,1,22
13.3753005,52.505925,22,1,22
13.3753005,52.505925,22,1,22
13.3753005,52.505925,22,1,22
13.3753005,52.505925,22,1,22
13.3753005,52.505925,22,1,22
13.3753005,52.505925,22,1,22
13.3753005,52.505925,22,1,22
13.3753005,52.505925,22,1,22
13.377652,52.49206,44,2,22
13.377944,52.492145,44,2,22
13.392945,52.489075,22,2,11
13.381119,52.489843,22,2,11
13.394098,52.485901,22,2,11
13.383965,52.485092,22,2,11
13.419889,52.490197,22,2,11
13.413538,52.493476,22,2,11
13.424433,52.489938,22,2,11
13.423135,52.492143,22,2,11
13.422464,52.49032,28,2,14
13.422464,52.49032,28,2,14
13.422464,52.49032,28,2,14
13.407592,52.500008,22,2,11
13.409668,52.50427,22,2,11
13.394772,52.499942,22,2,11
13.394782,52.499952,93,2,46.5
13.394584,52.506311,22,2,11
13.407904,52.50041,93,2,46.5
13.407917,52.498642,43,2,21.5
13.407917,52.498642,43,2,21.5
13.432597,52.502519,22,2,11
13.437175,52.500491,22,2,11
13.448166,52.497774,22,2,11
13.435079,52.501223,97,3,32.33333333
13.408519,52.553752,22,2,11
13.419909,52.498568,22,2,11
13.436405,52.492326,22,2,11
13.419379,52.505621,22,2,11
13.447891,52.477748,44,2,22
13.425589,52.485678,22,2,11
13.43987,52.47974,93,2,46.5
13.439154,52.480892,44,2,22
13.443611,52.483889,44,2,22
13.433537,52.485832,22,2,11
13.440846,52.482149,22,2,11
13.423077,52.494063,22,2,11
13.432001,52.492115,92,3,30.66666667
13.424146,52.486057,44,2,22
13.442555,52.464994,22,2,11
13.434451,52.463234,22,2,11
13.430205,52.468459,22,2,11
13.427361,52.477649,44,2,22
13.42787,52.474872,22,2,11
13.436308,52.478894,22,2,11
13.428816,52.483452,22,2,11
13.426914,52.478351,22,2,11
13.435103,52.470673,22,2,11
13.4435,52.469933,44,2,22
13.454383,52.474377,22,2,11
13.467502,52.468649,22,2,11
13.461596,52.46889,93,2,46.5
13.45612,52.471539,44,2,22
13.456928,52.48485,3.7,1,3.7
13.445771,52.479501,22,2,11
13.451435,52.475116,50,3,16.66666667
13.384968,52.459663,44,2,22
13.415612,52.46484,50,3,16.66666667
13.385094,52.467951,50,3,16.66666667
13.385943,52.483895,44,2,22
13.385563,52.474948,22,2,11
13.392939,52.483477,22,2,11
13.387296,52.480255,22,2,11
13.392939,52.483477,22,2,11
13.384575,52.480407,150,2,75
13.371279,52.469452,44,2,22
13.37075,52.469208,44,2,22
13.37075,52.469208,50,2,25
13.382651,52.455871,22,2,11
13.37693,52.456396,22,2,11
13.375263,52.468616,22,2,11
13.375891,52.458579,50,3,16.66666667
13.379533,52.503699,93,2,46.5
13.379816,52.444093,22,2,11
13.379816,52.444093,22,2,11
13.379816,52.444093,22,2,11
13.379816,52.444093,22,2,11
13.379816,52.444093,22,2,11
13.379816,52.444093,22,2,11
13.379816,52.444093,22,2,11
13.386994,52.44014,44,2,22
13.378949,52.438278,50,3,16.66666667
13.377342,52.429856,75,2,37.5
13.377335,52.429801,75,2,37.5
13.385035,52.452628,22,2,11
13.3589565,52.4906822,11,2,5.5
13.347064,52.465066,22,2,11
13.349812,52.470076,150,2,75
13.3401,52.470125,44,2,22
13.33612,52.471428,22,2,11
13.333625,52.471535,3.7,1,3.7
13.323667,52.475155,44,2,22
13.328003,52.471708,44,2,22
13.327451,52.46713,3.7,1,3.7
13.320837,52.47166,3.7,1,3.7
13.326978,52.473556,3.7,1,3.7
13.330027,52.464278,22,2,11
13.321319,52.465119,22,2,11
13.320161,52.457216,11,1,11
13.320161,52.457216,11,1,11
13.315737,52.453059,22,2,11
13.317566,52.455277,22,2,11
13.338099,52.451796,22,2,11
13.338665,52.454924,93,2,46.5
13.354367,52.449307,44,2,22
13.316541,52.440122,22,2,11
13.306709,52.446983,22,2,11
13.297004,52.447095,22,2,11
13.315025,52.452008,44,2,22
13.28946,52.440731,50,3,16.66666667
13.313928,52.427438,22,2,11
13.305055,52.410062,3.7,1,3.7
13.326706,52.429866,3.7,1,3.7
13.325502,52.432093,3.7,1,3.7
13.321433,52.426987,3.7,1,3.7
13.366102,52.425428,22,2,11
13.3371874,52.427724,22,2,11
13.370285,52.408941,150,2,75
13.348558,52.412375,3.7,1,3.7
13.4078,52.387166,350,2,175
13.422523,52.452364,44,2,22
13.431949,52.443544,22,2,11
13.42984,52.454693,22,2,11
13.4352366,52.44338333,156,2,78
13.455741,52.430558,44,2,22
13.451926,52.428739,22,2,11
13.46718,52.435067,93,2,46.5
13.496941,52.416522,44,2,22
13.509497,52.40218,22,2,11
13.459449,52.440678,44,2,22
13.449363,52.457472,22,2,11
13.454356,52.453047,50,3,16.66666667
13.43727,52.439345,50,3,16.66666667
13.447919,52.43644,93,2,46.5
13.475576,52.480171,22,2,11
13.455807,52.493961,3.7,1,3.7
13.455848,52.487552,3.7,1,3.7
13.46395,52.486798,22,2,11
13.448514,52.490282,22,2,11
13.461303,52.484148,96,3,32
13.490609,52.467513,22,2,11
13.503147,52.443268,22,2,11
13.5192243,52.427975,350,1,350
13.5192243,52.427975,350,1,350
13.51428,52.431678,22,2,11
13.527693,52.432581,22,2,11
13.537549,52.430703,22,2,11
13.537549,52.430703,22,2,11
13.537549,52.430703,22,2,11
13.537549,52.430703,22,2,11
13.530916,52.429709,22,2,11
13.533473,52.430492,11,1,11
13.538557,52.428872,22,2,11
13.529435,52.428662,22,2,11
13.522796,52.431378,22,2,11
13.52807,52.423001,22,2,11
13.52807,52.423001,22,2,11
13.528263,52.422942,39.6,2,19.8
13.545953,52.398659,75,2,37.5
13.545951,52.398618,45,2,22.5
13.574837,52.425646,22,2,11
13.5595409,52.423756,122,2,61
13.583481,52.45163,22,2,11
13.578466,52.457103,22,2,11
13.580101,52.458159,11,1,11
13.580101,52.458159,11,1,11
13.404954,52.520007,11,2,5.5
13.586226,52.521476,44,2,22
13.587696,52.510911,44,2,22
13.612144,52.51289,44,2,22
13.600983,52.47641,44,2,22
13.612067,52.512833,44,2,22
13.631431,52.517228,3.7,1,3.7
13.607021,52.505337,300,2,150
13.606686,52.490091,50,3,16.66666667
13.543413,52.542246,44,2,22
13.543103,52.553598,3.7,1,3.7
13.520918,52.529747,22,2,11
13.520912,52.529648,22,2,11
13.520908,52.529694,22,2,11
13.519894,52.530205,22,2,11
13.519817,52.530209,22,2,11
13.519753,52.530205,22,2,11
13.554232,52.51371,44,2,22
13.555783,52.50715,22,2,11
13.428637,52.50653,50,3,16.66666667
13.562264,52.50948,44,2,22
13.574313,52.540594,44,2,22
13.570834,52.541945,3.7,1,3.7
13.566658,52.555434,22,2,11
13.566698,52.570076,44,2,22
13.519722,52.544444,44,2,22
13.493279,52.54482,22,2,11
13.501168,52.548381,44,2,22
13.498685,52.544716,22,2,11
13.505635,52.537276,3.7,1,3.7
13.477047,52.537086,22,2,11
13.431897,52.555641,22,2,11
13.448373,52.553838,22,2,11
13.437723,52.556159,44,2,22
13.455833,52.548972,22,2,11
13.467487,52.562416,93,2,46.5
13.466124,52.560013,22,2,11
13.466306,52.54862,22,2,11
13.463286,52.56233,44,2,22
13.428003,52.567326,50,3,16.66666667
13.444966,52.564139,93,2,46.5
13.428852,52.561186,13.2,1,13.2
13.429102,52.588954,93,2,46.5
13.425336,52.606974,22,2,11
13.43264,52.59392,50,3,16.66666667
13.400588,52.580718,22,2,11
13.411936,52.581369,22,2,11
13.394456,52.58981,3.7,1,3.7
13.399035,52.574125,44,2,22
13.412595,52.558692,22,2,11
13.405779,52.56623,22,2,11
13.41644,52.570511,22,2,11
13.425986,52.567806,22,2,11
13.421816,52.55747,3.7,1,3.7
13.416289,52.560462,22,2,11
13.371425,52.540164,22,2,11
13.369095,52.546207,22,2,11
13.361305,52.554946,22,2,11
13.358499,52.549797,22,2,11
13.346244,52.553422,93,2,46.5
13.340873,52.554993,22,2,11
13.340696,52.551304,22,2,11
13.354084,52.547089,22,2,11
13.356203,52.539392,22,2,11
13.347789,52.543269,3.7,1,3.7
13.345153,52.546602,3.7,1,3.7
13.348699,52.53906,22,2,11
13.390538,52.536447,22,2,11
13.391727,52.545027,22,2,11
13.390538,52.536447,22,2,11
13.389803,52.54711,22,2,11
13.394007,52.554776,22,2,11
13.374454,52.548121,22,2,11
13.388672,52.549619,110,4,27.5
13.383312,52.555109,44,2,22
13.3696,52.549041,44,2,22
13.394848,52.561813,22,2,11
13.329722,52.563734,3.7,1,3.7
13.313786,52.569566,22,2,11
13.328512,52.567869,93,2,46.5
13.34225,52.585956,50,3,16.66666667
13.373826,52.562678,3.7,1,3.7
13.3786,52.5655833,44,2,22
13.469077,52.54627,50,3,16.66666667
13.365108,52.561926,50,3,16.66666667
13.3731472,52.5591156,93,2,46.5
13.368,52.604,50,2,25
13.31357,52.605068,3.7,1,3.7
13.498827,52.569229,3.7,1,3.7
13.28121,52.590506,22,2,11
13.293621,52.577336,93,2,46.5
13.391272,52.528091,22,2,11
13.292612,52.591615,22,2,11
13.295623,52.577694,22,2,11
13.295652,52.577656,22,2,11
13.295703,52.577629,22,2,11
13.196889,52.533331,44,2,22
13.174442,52.533653,44,2,22
13.195482,52.533272,22,2,11
13.195482,52.533272,22,2,11
13.192741,52.534166,93,2,46.5
13.18913,52.53338,93,2,46.5
13.18304,52.529026,22,2,11
13.18358,52.54761,44,2,22
13.198333,52.555667,44,2,22
13.205021,52.543395,22,2,11
13.1984648,52.5535153,22,2,11
13.218403,52.557914,44,2,22
13.218402,52.557421,22,2,11
13.13987,52.529385,3.7,1,3.7
13.14317,52.54614,44,2,22
13.16963,52.518224,22,2,11
13.164294,52.521456,22,2,11
13.187022,52.517415,22,2,11
13.198469,52.522056,22,2,11
13.205778,52.539603,44,2,22
13.228676,52.528196,44,2,22
13.216901,52.526615,44,2,22
13.207808,52.532922,22,2,11
13.199348,52.539011,22,2,11
13.203113,52.535262,22,2,11
13.349812,52.526659,50,3,16.66666667
13.217505,52.538151,44,2,22
13.238754,52.542808,22,2,11
13.225299,52.546022,22,2,11
13.233375,52.539721,50,3,16.66666667
13.221625,52.53664,350,2,175
13.300126,52.535549,22,2,11
13.294966,52.536317,43,2,21.5
13.294966,52.536317,43,2,21.5
13.264151,52.536687,44,2,22
13.283509,52.531038,22,2,11
13.260862,52.516448,44,2,22
13.269472,52.519745,22,2,11
13.266231,52.513246,22,2,11
13.272761,52.508782,44,2,22
13.260031,52.515106,3.7,1,3.7
13.260589,52.508433,50,2,25
13.260589,52.508433,44,2,22
13.273421,52.500152,93,2,46.5
13.27461,52.519254,93,2,46.5
13.231718,52.506239,3.7,1,3.7
13.285287,52.507096,22,2,11
13.291348,52.503966,22,2,11
13.294996,52.509786,22,2,11
13.296101,52.50599,22,2,11
13.286372,52.51005,22,2,11
13.289279,52.509991,22,2,11
13.28,52.51,44,2,22
13.295717,52.518917,44,2,22
13.286601,52.519445,22,2,11
13.288812,52.513068,22,2,11
13.293968,52.51649,22,2,11
13.281518,52.513191,22,2,11
13.290254,52.517603,22,2,11
13.376935,52.462447,22,2,11
13.376935,52.462447,22,2,11
13.191749,52.434341,93,2,46.5
13.239799,52.442567,22,2,11
13.230782,52.446744,3.7,1,3.7
13.262563,52.438486,22,2,11
13.268642,52.444851,22,2,11
13.291687,52.457986,22,2,11
13.28954,52.468436,3.7,1,3.7
13.280166,52.443403,22,2,11
13.308104,52.472172,22,2,11
13.328323,52.477016,3.7,1,3.7
13.303121,52.475004,3.7,1,3.7
13.296678,52.48375,44,2,22
13.282364,52.477634,22,2,11
13.294078,52.484282,22,2,11
13.290291,52.47361,3.7,1,3.7
13.213127,52.5299,92,3,30.66666667
13.2864312,52.4172212,93,2,46.5
